package zhekoudemo;
import java.util.Scanner;
public class dazhe {

	public static void main(String[] args) {
		String tishi="你不是会员！";
		int a;
		Scanner input =new Scanner(System.in);
		System.out.print("请输入是否是会员（y为是n为不是）（不区分大小写）：");
		String panduan=input.next();
		if(panduan.equals("y")||panduan.equals("Y")){
			a=1;
		}
		else{
			System.out.print(tishi);
			a=2;
		}
		System.out.print("请输入购物金额：");
		double jine=input.nextDouble();
		double shijijine;
		if(a==1){
			if(jine>=200){
				shijijine=jine*7.5/10;
			}
			else if(jine>=100){
				shijijine=jine*8/10;
			}
			else{
			shijijine=jine;
			}
		}
		else{
			if(jine>=100){
				shijijine=jine*9/10;
			}
			else{
			shijijine=jine;
			}
		}
		System.out.print("实际支付："+shijijine);
	}

}
